VARIABLES = "X", "Y", "Z" 
ZONE t="t:0", N=355, E=1163, F=FEPOINT, ET=TETRAHEDRON
-1.000000e+00 -1.000000e+00 -1.000000e+00 
1.000000e+00 -1.000000e+00 -1.000000e+00 
1.000000e+00 1.000000e+00 -1.000000e+00 
-1.000000e+00 1.000000e+00 -1.000000e+00 
-1.000000e+00 -1.000000e+00 1.000000e+00 
1.000000e+00 -1.000000e+00 1.000000e+00 
1.000000e+00 1.000000e+00 1.000000e+00 
-1.000000e+00 1.000000e+00 1.000000e+00 
-6.666667e-01 -1.000000e+00 -1.000000e+00 
-3.333333e-01 -1.000000e+00 -1.000000e+00 
-2.611023e-12 -1.000000e+00 -1.000000e+00 
3.333333e-01 -1.000000e+00 -1.000000e+00 
6.666667e-01 -1.000000e+00 -1.000000e+00 
1.000000e+00 -6.666667e-01 -1.000000e+00 
1.000000e+00 -3.333333e-01 -1.000000e+00 
1.000000e+00 -2.611023e-12 -1.000000e+00 
1.000000e+00 3.333333e-01 -1.000000e+00 
1.000000e+00 6.666667e-01 -1.000000e+00 
6.666667e-01 1.000000e+00 -1.000000e+00 
3.333333e-01 1.000000e+00 -1.000000e+00 
4.118483e-12 1.000000e+00 -1.000000e+00 
-3.333333e-01 1.000000e+00 -1.000000e+00 
-6.666667e-01 1.000000e+00 -1.000000e+00 
-1.000000e+00 6.666667e-01 -1.000000e+00 
-1.000000e+00 3.333333e-01 -1.000000e+00 
-1.000000e+00 4.118483e-12 -1.000000e+00 
-1.000000e+00 -3.333333e-01 -1.000000e+00 
-1.000000e+00 -6.666667e-01 -1.000000e+00 
-6.666667e-01 -1.000000e+00 1.000000e+00 
-3.333333e-01 -1.000000e+00 1.000000e+00 
-2.611023e-12 -1.000000e+00 1.000000e+00 
3.333333e-01 -1.000000e+00 1.000000e+00 
6.666667e-01 -1.000000e+00 1.000000e+00 
1.000000e+00 -6.666667e-01 1.000000e+00 
1.000000e+00 -3.333333e-01 1.000000e+00 
1.000000e+00 -2.611023e-12 1.000000e+00 
1.000000e+00 3.333333e-01 1.000000e+00 
1.000000e+00 6.666667e-01 1.000000e+00 
6.666667e-01 1.000000e+00 1.000000e+00 
3.333333e-01 1.000000e+00 1.000000e+00 
4.118483e-12 1.000000e+00 1.000000e+00 
-3.333333e-01 1.000000e+00 1.000000e+00 
-6.666667e-01 1.000000e+00 1.000000e+00 
-1.000000e+00 6.666667e-01 1.000000e+00 
-1.000000e+00 3.333333e-01 1.000000e+00 
-1.000000e+00 4.118483e-12 1.000000e+00 
-1.000000e+00 -3.333333e-01 1.000000e+00 
-1.000000e+00 -6.666667e-01 1.000000e+00 
-1.000000e+00 -1.000000e+00 -6.666667e-01 
-1.000000e+00 -1.000000e+00 -3.333333e-01 
-1.000000e+00 -1.000000e+00 -2.611023e-12 
-1.000000e+00 -1.000000e+00 3.333333e-01 
-1.000000e+00 -1.000000e+00 6.666667e-01 
-1.000000e+00 1.000000e+00 -6.666667e-01 
-1.000000e+00 1.000000e+00 -3.333333e-01 
-1.000000e+00 1.000000e+00 -2.611023e-12 
-1.000000e+00 1.000000e+00 3.333333e-01 
-1.000000e+00 1.000000e+00 6.666667e-01 
1.000000e+00 -1.000000e+00 -6.666667e-01 
1.000000e+00 -1.000000e+00 -3.333333e-01 
1.000000e+00 -1.000000e+00 -2.611023e-12 
1.000000e+00 -1.000000e+00 3.333333e-01 
1.000000e+00 -1.000000e+00 6.666667e-01 
1.000000e+00 1.000000e+00 -6.666667e-01 
1.000000e+00 1.000000e+00 -3.333333e-01 
1.000000e+00 1.000000e+00 -2.611023e-12 
1.000000e+00 1.000000e+00 3.333333e-01 
1.000000e+00 1.000000e+00 6.666667e-01 
-1.000000e+00 1.101469e-02 -2.240277e-03 
-1.000000e+00 4.693551e-01 -4.635883e-01 
-1.000000e+00 4.635883e-01 4.693551e-01 
-1.000000e+00 -4.581781e-01 -4.657737e-01 
-1.000000e+00 -4.657737e-01 4.581781e-01 
-1.000000e+00 1.715288e-03 -5.742533e-01 
-1.000000e+00 1.467715e-13 5.595238e-01 
-1.000000e+00 5.595238e-01 -1.082467e-13 
-1.000000e+00 -5.742533e-01 -1.715288e-03 
-1.000000e+00 6.583333e-01 -6.583333e-01 
-1.000000e+00 6.583333e-01 6.583333e-01 
-1.000000e+00 -6.712735e-01 -6.716031e-01 
-1.000000e+00 -6.716031e-01 6.712735e-01 
-1.000000e+00 1.689377e-01 -3.719631e-01 
-1.000000e+00 3.768202e-01 1.576060e-01 
-1.000000e+00 -1.415667e-01 3.107790e-01 
-1.000000e+00 -3.090089e-01 -1.456963e-01 
-1.000000e+00 2.791488e-01 -6.946403e-01 
-1.000000e+00 2.791488e-01 6.946403e-01 
-1.000000e+00 6.946403e-01 -2.791488e-01 
-1.000000e+00 -6.941939e-01 -2.684647e-01 
-1.000000e+00 6.967316e-01 2.690624e-01 
-1.000000e+00 -2.791488e-01 -6.946403e-01 
-1.000000e+00 -6.946403e-01 2.791488e-01 
-1.000000e+00 -2.682111e-01 6.936317e-01 
-1.000000e+00 3.800486e-01 -1.598891e-01 
-1.000000e+00 -1.353284e-01 -3.628767e-01 
-1.000000e+00 1.648342e-01 3.649440e-01 
-1.000000e+00 -3.468419e-01 1.319278e-01 
-1.000000e+00 4.819169e-01 -8.023686e-01 
-1.000000e+00 8.161130e-01 4.821103e-01 
-1.000000e+00 4.821103e-01 8.161130e-01 
-1.000000e+00 -4.820087e-01 -8.031732e-01 
-1.000000e+00 8.161130e-01 -4.821103e-01 
-1.000000e+00 -4.821103e-01 8.161130e-01 
-1.000000e+00 -8.031732e-01 4.820087e-01 
-1.000000e+00 -8.161130e-01 -4.821103e-01 
-1.000000e+00 8.251984e-01 -8.251984e-01 
-1.000000e+00 8.251984e-01 8.251984e-01 
-1.000000e+00 -8.344851e-01 -8.345674e-01 
-1.000000e+00 -8.345674e-01 8.344851e-01 
-1.054712e-14 4.352074e-14 1.000000e+00 
4.657737e-01 4.581781e-01 1.000000e+00 
-4.581781e-01 4.657737e-01 1.000000e+00 
4.581781e-01 -4.657737e-01 1.000000e+00 
-4.657737e-01 -4.581781e-01 1.000000e+00 
1.715288e-03 5.742533e-01 1.000000e+00 
-5.742533e-01 1.715288e-03 1.000000e+00 
5.742533e-01 -1.715288e-03 1.000000e+00 
-1.715288e-03 -5.742533e-01 1.000000e+00 
6.716031e-01 6.712735e-01 1.000000e+00 
-6.712735e-01 6.716031e-01 1.000000e+00 
6.712735e-01 -6.716031e-01 1.000000e+00 
-6.716031e-01 -6.712735e-01 1.000000e+00 
1.490224e-01 3.216443e-01 1.000000e+00 
-3.216443e-01 1.490224e-01 1.000000e+00 
3.216443e-01 -1.490224e-01 1.000000e+00 
-1.490224e-01 -3.216443e-01 1.000000e+00 
2.686090e-01 6.947421e-01 1.000000e+00 
-6.947421e-01 2.686090e-01 1.000000e+00 
6.947421e-01 -2.686090e-01 1.000000e+00 
-2.686090e-01 -6.947421e-01 1.000000e+00 
6.946403e-01 2.791488e-01 1.000000e+00 
-2.791488e-01 6.946403e-01 1.000000e+00 
2.791488e-01 -6.946403e-01 1.000000e+00 
-6.946403e-01 -2.791488e-01 1.000000e+00 
-1.327594e-01 3.494870e-01 1.000000e+00 
3.494870e-01 1.327594e-01 1.000000e+00 
-3.494870e-01 -1.327594e-01 1.000000e+00 
1.327594e-01 -3.494870e-01 1.000000e+00 
-4.820087e-01 8.031732e-01 1.000000e+00 
8.031732e-01 4.820087e-01 1.000000e+00 
4.821103e-01 8.161130e-01 1.000000e+00 
-8.031732e-01 -4.820087e-01 1.000000e+00 
-8.161130e-01 4.821103e-01 1.000000e+00 
4.820087e-01 -8.031732e-01 1.000000e+00 
8.161130e-01 -4.821103e-01 1.000000e+00 
-4.821103e-01 -8.161130e-01 1.000000e+00 
8.345674e-01 8.344851e-01 1.000000e+00 
-8.344851e-01 8.345674e-01 1.000000e+00 
8.344851e-01 -8.345674e-01 1.000000e+00 
-8.345674e-01 -8.344851e-01 1.000000e+00 
1.000000e+00 -4.387208e-03 -6.627485e-03 
1.000000e+00 -4.693551e-01 -4.635883e-01 
1.000000e+00 4.581781e-01 -4.657737e-01 
1.000000e+00 -4.581781e-01 4.657737e-01 
1.000000e+00 4.657737e-01 4.581781e-01 
1.000000e+00 -1.715288e-03 -5.742533e-01 
1.000000e+00 -5.595238e-01 -1.080247e-13 
1.000000e+00 1.715288e-03 5.742533e-01 
1.000000e+00 5.742533e-01 -1.715288e-03 
1.000000e+00 -6.583333e-01 -6.583333e-01 
1.000000e+00 -6.712735e-01 6.716031e-01 
1.000000e+00 6.712735e-01 -6.716031e-01 
1.000000e+00 6.716031e-01 6.712735e-01 
1.000000e+00 -1.678331e-01 -3.726943e-01 
1.000000e+00 -3.111815e-01 1.418332e-01 
1.000000e+00 3.094114e-01 -1.459628e-01 
1.000000e+00 1.452938e-01 3.092753e-01 
1.000000e+00 -2.791488e-01 -6.946403e-01 
1.000000e+00 -6.946403e-01 -2.791488e-01 
1.000000e+00 -2.791488e-01 6.946403e-01 
1.000000e+00 6.942114e-01 -2.684763e-01 
1.000000e+00 2.791488e-01 -6.946403e-01 
1.000000e+00 -6.936492e-01 2.682227e-01 
1.000000e+00 2.684472e-01 6.942055e-01 
1.000000e+00 6.946403e-01 2.791488e-01 
1.000000e+00 -3.678202e-01 -1.633709e-01 
1.000000e+00 1.454671e-01 -3.766587e-01 
1.000000e+00 -1.325598e-01 3.472603e-01 
1.000000e+00 3.428735e-01 1.262519e-01 
1.000000e+00 4.820087e-01 -8.031732e-01 
1.000000e+00 -8.161130e-01 4.821103e-01 
1.000000e+00 -4.819169e-01 -8.023686e-01 
1.000000e+00 -8.161130e-01 -4.821103e-01 
1.000000e+00 4.821103e-01 8.161130e-01 
1.000000e+00 8.031732e-01 4.820087e-01 
1.000000e+00 -4.820087e-01 8.031732e-01 
1.000000e+00 8.161130e-01 -4.821103e-01 
1.000000e+00 -8.267737e-01 -8.267737e-01 
1.000000e+00 8.344851e-01 -8.345674e-01 
1.000000e+00 -8.344851e-01 8.345674e-01 
1.000000e+00 8.345674e-01 8.344851e-01 
-1.076916e-14 4.352074e-14 -1.000000e+00 
4.657737e-01 4.581781e-01 -1.000000e+00 
-4.581781e-01 4.657737e-01 -1.000000e+00 
4.581781e-01 -4.657737e-01 -1.000000e+00 
-4.657737e-01 -4.581781e-01 -1.000000e+00 
1.715288e-03 5.742533e-01 -1.000000e+00 
-5.742533e-01 1.715288e-03 -1.000000e+00 
5.742533e-01 -1.715288e-03 -1.000000e+00 
-1.715288e-03 -5.742533e-01 -1.000000e+00 
6.716031e-01 6.712735e-01 -1.000000e+00 
-6.712735e-01 6.716031e-01 -1.000000e+00 
6.712735e-01 -6.716031e-01 -1.000000e+00 
-6.716031e-01 -6.712735e-01 -1.000000e+00 
1.490224e-01 3.216443e-01 -1.000000e+00 
-3.216443e-01 1.490224e-01 -1.000000e+00 
3.216443e-01 -1.490224e-01 -1.000000e+00 
-1.490224e-01 -3.216443e-01 -1.000000e+00 
2.686090e-01 6.947421e-01 -1.000000e+00 
-6.947421e-01 2.686090e-01 -1.000000e+00 
6.947421e-01 -2.686090e-01 -1.000000e+00 
-2.686090e-01 -6.947421e-01 -1.000000e+00 
6.946403e-01 2.791488e-01 -1.000000e+00 
-2.791488e-01 6.946403e-01 -1.000000e+00 
2.791488e-01 -6.946403e-01 -1.000000e+00 
-6.946403e-01 -2.791488e-01 -1.000000e+00 
-1.327594e-01 3.494870e-01 -1.000000e+00 
3.494870e-01 1.327594e-01 -1.000000e+00 
-3.494870e-01 -1.327594e-01 -1.000000e+00 
1.327594e-01 -3.494870e-01 -1.000000e+00 
-4.820087e-01 8.031732e-01 -1.000000e+00 
8.031732e-01 4.820087e-01 -1.000000e+00 
4.821103e-01 8.161130e-01 -1.000000e+00 
-8.031732e-01 -4.820087e-01 -1.000000e+00 
-8.161130e-01 4.821103e-01 -1.000000e+00 
4.820087e-01 -8.031732e-01 -1.000000e+00 
8.161130e-01 -4.821103e-01 -1.000000e+00 
-4.821103e-01 -8.161130e-01 -1.000000e+00 
8.345674e-01 8.344851e-01 -1.000000e+00 
-8.344851e-01 8.345674e-01 -1.000000e+00 
8.344851e-01 -8.345674e-01 -1.000000e+00 
-8.345674e-01 -8.344851e-01 -1.000000e+00 
-4.387208e-03 -1.000000e+00 -6.627485e-03 
-4.693551e-01 -1.000000e+00 -4.635883e-01 
4.581781e-01 -1.000000e+00 -4.657737e-01 
-4.581781e-01 -1.000000e+00 4.657737e-01 
4.657737e-01 -1.000000e+00 4.581781e-01 
-1.715288e-03 -1.000000e+00 -5.742533e-01 
-5.595238e-01 -1.000000e+00 -1.080247e-13 
1.715288e-03 -1.000000e+00 5.742533e-01 
5.742533e-01 -1.000000e+00 -1.715288e-03 
-6.583333e-01 -1.000000e+00 -6.583333e-01 
-6.712735e-01 -1.000000e+00 6.716031e-01 
6.712735e-01 -1.000000e+00 -6.716031e-01 
6.716031e-01 -1.000000e+00 6.712735e-01 
-1.678331e-01 -1.000000e+00 -3.726943e-01 
-3.111815e-01 -1.000000e+00 1.418332e-01 
3.094114e-01 -1.000000e+00 -1.459628e-01 
1.452938e-01 -1.000000e+00 3.092753e-01 
-2.791488e-01 -1.000000e+00 -6.946403e-01 
-6.946403e-01 -1.000000e+00 -2.791488e-01 
-2.791488e-01 -1.000000e+00 6.946403e-01 
6.942114e-01 -1.000000e+00 -2.684763e-01 
2.791488e-01 -1.000000e+00 -6.946403e-01 
-6.936492e-01 -1.000000e+00 2.682227e-01 
2.684472e-01 -1.000000e+00 6.942055e-01 
6.946403e-01 -1.000000e+00 2.791488e-01 
-3.678202e-01 -1.000000e+00 -1.633709e-01 
1.454671e-01 -1.000000e+00 -3.766587e-01 
-1.325598e-01 -1.000000e+00 3.472603e-01 
3.428735e-01 -1.000000e+00 1.262519e-01 
4.820087e-01 -1.000000e+00 -8.031732e-01 
-8.161130e-01 -1.000000e+00 4.821103e-01 
-4.819169e-01 -1.000000e+00 -8.023686e-01 
-8.161130e-01 -1.000000e+00 -4.821103e-01 
4.821103e-01 -1.000000e+00 8.161130e-01 
8.031732e-01 -1.000000e+00 4.820087e-01 
-4.820087e-01 -1.000000e+00 8.031732e-01 
8.161130e-01 -1.000000e+00 -4.821103e-01 
-8.267737e-01 -1.000000e+00 -8.267737e-01 
8.344851e-01 -1.000000e+00 -8.345674e-01 
-8.344851e-01 -1.000000e+00 8.345674e-01 
8.345674e-01 -1.000000e+00 8.344851e-01 
1.101469e-02 1.000000e+00 -2.240277e-03 
4.693551e-01 1.000000e+00 -4.635883e-01 
4.635883e-01 1.000000e+00 4.693551e-01 
-4.581781e-01 1.000000e+00 -4.657737e-01 
-4.657737e-01 1.000000e+00 4.581781e-01 
1.715288e-03 1.000000e+00 -5.742533e-01 
1.467715e-13 1.000000e+00 5.595238e-01 
5.595238e-01 1.000000e+00 -1.082467e-13 
-5.742533e-01 1.000000e+00 -1.715288e-03 
6.583333e-01 1.000000e+00 -6.583333e-01 
6.583333e-01 1.000000e+00 6.583333e-01 
-6.712735e-01 1.000000e+00 -6.716031e-01 
-6.716031e-01 1.000000e+00 6.712735e-01 
1.689377e-01 1.000000e+00 -3.719631e-01 
3.768202e-01 1.000000e+00 1.576060e-01 
-1.415667e-01 1.000000e+00 3.107790e-01 
-3.090089e-01 1.000000e+00 -1.456963e-01 
2.791488e-01 1.000000e+00 -6.946403e-01 
2.791488e-01 1.000000e+00 6.946403e-01 
6.946403e-01 1.000000e+00 -2.791488e-01 
-6.941939e-01 1.000000e+00 -2.684647e-01 
6.967316e-01 1.000000e+00 2.690624e-01 
-2.791488e-01 1.000000e+00 -6.946403e-01 
-6.946403e-01 1.000000e+00 2.791488e-01 
-2.682111e-01 1.000000e+00 6.936317e-01 
3.800486e-01 1.000000e+00 -1.598891e-01 
-1.353284e-01 1.000000e+00 -3.628767e-01 
1.648342e-01 1.000000e+00 3.649440e-01 
-3.468419e-01 1.000000e+00 1.319278e-01 
4.819169e-01 1.000000e+00 -8.023686e-01 
8.161130e-01 1.000000e+00 4.821103e-01 
4.821103e-01 1.000000e+00 8.161130e-01 
-4.820087e-01 1.000000e+00 -8.031732e-01 
8.161130e-01 1.000000e+00 -4.821103e-01 
-4.821103e-01 1.000000e+00 8.161130e-01 
-8.031732e-01 1.000000e+00 4.820087e-01 
-8.161130e-01 1.000000e+00 -4.821103e-01 
8.251984e-01 1.000000e+00 -8.251984e-01 
8.251984e-01 1.000000e+00 8.251984e-01 
-8.344851e-01 1.000000e+00 -8.345674e-01 
-8.345674e-01 1.000000e+00 8.344851e-01 
3.144640e-05 -3.172354e-05 0.000000e+00 
-3.719831e-01 3.704380e-01 -3.704380e-01 
3.704501e-01 3.719950e-01 -3.704501e-01 
-3.704503e-01 -3.719952e-01 -3.704503e-01 
3.720071e-01 -3.704624e-01 -3.704624e-01 
-3.719882e-01 3.704214e-01 3.704433e-01 
3.704335e-01 3.720002e-01 3.704555e-01 
-3.708182e-01 -3.708182e-01 3.708182e-01 
3.708303e-01 -3.708303e-01 3.708303e-01 
-1.098011e-04 5.709192e-02 -4.999982e-01 
-1.114516e-04 5.707955e-02 4.999982e-01 
5.002945e-01 5.673760e-02 7.794303e-06 
-5.626545e-02 5.006653e-01 7.807698e-06 
1.048743e-03 -4.996773e-01 -5.655407e-02 
-4.999332e-01 -1.049566e-03 -5.619409e-02 
-6.051340e-01 -6.051340e-01 6.051340e-01 
6.051409e-01 -6.051409e-01 6.051409e-01 
-6.016785e-01 6.063461e-01 -6.063461e-01 
6.063529e-01 6.016859e-01 -6.063529e-01 
-6.063530e-01 -6.016859e-01 -6.063530e-01 
6.016933e-01 -6.063597e-01 -6.063597e-01 
-6.016762e-01 6.063485e-01 6.063438e-01 
6.063552e-01 6.016835e-01 6.063505e-01 
4.214498e-01 8.752857e-04 -5.916989e-01 
-4.214262e-01 -8.786007e-04 -5.916994e-01 
4.215633e-01 7.236748e-04 5.916425e-01 
-4.210058e-01 -1.646236e-04 5.922671e-01 
7.613187e-04 -3.646793e-01 -5.897622e-01 
2.580696e-06 -3.643030e-01 5.902803e-01 
-5.924428e-01 -4.222651e-01 1.546162e-04 
4.219071e-01 -5.917500e-01 1.543610e-04 
-1.228222e-03 5.909868e-01 -4.213008e-01 
-1.031667e-03 4.892487e-01 5.704620e-01 
3.662184e-01 5.965872e-01 1.014196e-06 
-4.875668e-01 5.715915e-01 6.380311e-06 
-7.744592e-02 -6.174239e-01 3.055460e-01 
-7.581010e-01 -7.581010e-01 7.581010e-01 
7.581048e-01 -7.581048e-01 7.581048e-01 
6.310883e-01 -2.880768e-01 -1.014237e-01 
-6.306662e-01 1.007316e-01 2.886137e-01 
2.376508e-01 -6.491105e-01 5.771955e-01 
319 335 254 342 
250 334 318 342 
232 108 270 334 
271 188 231 335 
315 326 323 345 
322 315 329 341 
322 325 315 341 
171 333 317 348 
230 313 106 332 
311 229 189 333 
314 148 107 336 
191 147 312 337 
321 337 175 348 
315 323 343 350 
95 318 72 334 
178 326 323 340 
315 323 328 345 
155 321 174 337 
320 315 325 354 
323 345 326 353 
209 317 193 333 
322 341 329 354 
153 317 171 333 
319 324 315 326 
255 236 322 330 
73 322 93 330 
154 323 173 331 
194 316 214 332 
315 326 345 353 
179 321 175 348 
315 341 325 354 
315 325 323 326 
329 341 315 354 
278 336 320 347 
315 328 319 353 
171 317 166 348 
330 343 252 350 
154 170 323 331 
175 321 155 337 
315 328 323 350 
324 326 319 338 
315 343 322 350 
323 326 325 340 
315 345 328 353 
315 328 322 329 
179 326 321 348 
174 337 321 340 
317 333 209 346 
259 319 254 342 
318 334 91 339 
172 317 333 338 
93 330 322 341 
214 332 316 346 
255 330 322 344 
178 323 326 353 
173 331 323 345 
250 318 246 342 
246 318 328 342 
170 323 331 340 
86 332 316 339 
168 335 319 338 
320 325 341 354 
259 328 319 342 
322 329 328 344 
258 318 234 334 
317 326 166 348 
318 334 251 344 
194 217 214 316 
95 91 318 334 
322 343 330 350 
315 318 324 342 
315 324 319 342 
154 170 178 323 
276 301 321 337 
250 212 334 342 
175 179 155 321 
259 319 235 335 
177 317 153 333 
315 319 326 353 
322 315 325 343 
323 325 315 343 
130 252 330 343 
217 214 316 346 
209 205 193 317 
328 345 319 353 
320 329 315 354 
170 178 323 340 
217 316 324 346 
172 317 177 333 
254 319 259 335 
317 315 326 348 
258 328 318 344 
94 316 70 332 
205 317 209 346 
315 328 318 342 
315 319 328 342 
95 72 91 334 
321 326 315 348 
174 155 167 321 
166 171 153 317 
317 327 315 348 
177 326 317 338 
321 315 327 348 
255 236 247 322 
154 165 173 323 
93 73 84 322 
83 71 320 336 
295 175 337 348 
196 318 334 342 
215 254 335 342 
251 318 258 334 
275 317 333 348 
171 293 333 348 
174 321 167 340 
114 330 322 343 
93 322 84 341 
152 319 164 335 
234 318 246 334 
255 322 247 344 
165 173 323 345 
250 246 318 334 
168 164 319 335 
276 337 321 348 
82 70 316 332 
95 318 91 339 
82 316 86 332 
321 337 301 347 
321 326 167 340 
317 315 324 326 
317 326 324 338 
179 166 326 348 
205 324 317 346 
195 335 319 342 
315 321 325 326 
278 298 336 347 
246 328 259 342 
83 336 320 349 
325 326 321 340 
278 320 289 347 
177 326 338 353 
315 322 328 350 
316 332 94 349 
301 321 347 348 
275 333 317 346 
95 329 318 339 
315 324 318 329 
167 326 178 340 
317 324 315 327 
315 325 321 327 
328 344 247 350 
217 324 316 339 
327 347 321 348 
177 317 172 338 
159 171 166 348 
301 347 327 348 
315 318 328 329 
258 318 251 344 
328 329 318 344 
251 258 234 334 
84 341 322 354 
247 328 258 344 
168 319 164 338 
165 345 323 353 
86 316 82 339 
196 334 212 342 
114 130 330 343 
82 316 329 339 
277 332 316 349 
111 337 321 347 
194 316 332 339 
195 319 335 338 
276 292 301 337 
320 327 315 329 
113 331 323 340 
295 337 276 348 
195 319 207 342 
235 335 319 345 
72 334 318 344 
196 318 219 339 
193 317 218 338 
112 336 320 341 
178 165 323 353 
113 343 323 355 
159 179 175 348 
136 321 111 340 
125 323 113 343 
320 336 278 349 
196 334 318 339 
193 333 317 338 
275 333 293 348 
320 336 112 347 
322 330 114 341 
237 323 331 345 
137 322 114 341 
322 330 73 344 
316 332 277 346 
194 206 217 316 
205 218 193 317 
219 196 208 318 
254 259 235 335 
172 177 153 333 
177 338 164 353 
112 135 124 320 
123 111 136 321 
321 337 111 340 
237 331 323 355 
137 126 114 322 
83 90 71 336 
94 329 316 349 
88 94 70 332 
195 215 335 342 
318 329 95 344 
97 322 73 344 
336 341 87 354 
335 345 169 353 
322 247 344 350 
318 329 324 339 
135 320 112 347 
324 327 317 346 
196 208 318 342 
138 125 113 343 
195 207 220 342 
247 322 236 350 
154 178 165 323 
217 324 205 346 
319 328 259 345 
300 316 277 346 
246 318 258 328 
316 315 324 327 
317 324 205 338 
315 316 324 329 
179 167 321 326 
230 285 313 332 
162 189 229 333 
232 80 108 334 
244 271 231 335 
114 322 126 343 
83 90 336 349 
315 320 325 327 
82 316 94 329 
168 152 164 335 
302 289 278 320 
250 234 246 334 
120 148 314 336 
191 119 147 337 
167 155 179 321 
82 86 70 332 
302 320 278 349 
84 73 97 322 
138 343 113 355 
177 166 317 326 
292 301 337 347 
289 320 327 347 
321 327 325 347 
289 327 320 349 
320 135 341 347 
194 206 316 339 
207 319 195 338 
290 277 300 316 
85 72 95 318 
316 315 327 329 
219 318 208 339 
218 317 205 338 
210 332 86 339 
112 320 124 341 
168 211 335 338 
206 217 316 339 
318 208 339 342 
291 209 333 346 
88 94 332 349 
111 321 123 347 
319 345 335 353 
270 108 80 334 
232 270 204 334 
244 188 271 335 
203 231 188 335 
128 87 336 341 
170 331 129 340 
125 113 323 340 
123 321 136 340 
320 341 336 354 
327 329 320 349 
124 320 135 341 
179 159 166 348 
253 169 335 345 
134 330 93 341 
89 251 334 344 
275 291 333 346 
126 322 137 341 
313 285 106 332 
106 202 230 332 
162 311 189 333 
201 229 311 333 
173 257 331 345 
286 314 107 336 
120 107 148 336 
312 163 191 337 
147 119 312 337 
126 322 341 343 
92 330 255 344 
152 319 335 353 
250 246 238 342 
302 289 320 349 
72 318 85 344 
248 235 319 345 
290 277 316 349 
278 289 298 347 
83 320 71 354 
275 299 317 348 
238 259 254 342 
164 319 152 353 
174 131 337 340 
276 321 288 348 
94 329 349 354 
153 177 166 317 
248 235 259 319 
82 329 95 339 
113 129 331 340 
194 332 210 339 
195 335 211 338 
237 323 345 355 
275 317 287 346 
319 164 338 353 
246 259 238 342 
246 234 258 318 
207 319 338 342 
71 320 336 354 
112 128 336 341 
216 91 334 339 
172 333 213 338 
235 253 335 345 
72 89 334 344 
296 332 214 346 
288 276 301 321 
324 329 316 339 
82 70 94 316 
299 287 275 317 
316 327 324 346 
125 340 323 343 
325 327 320 347 
322 330 236 350 
84 322 97 344 
134 114 330 341 
237 331 257 345 
92 73 330 344 
85 318 95 344 
94 349 83 354 
290 316 300 346 
316 329 327 349 
113 323 331 355 
127 337 111 347 
123 321 340 347 
325 341 135 347 
295 276 288 348 
216 334 196 339 
193 213 333 338 
277 294 332 349 
296 277 332 346 
131 111 337 340 
84 322 344 354 
289 327 301 347 
302 327 289 349 
248 319 259 345 
252 236 330 350 
275 293 299 348 
252 343 240 350 
290 316 346 349 
297 278 336 349 
301 288 321 348 
287 346 317 348 
152 335 169 353 
132 112 336 347 
287 317 299 348 
71 336 87 354 
123 340 325 347 
174 167 158 340 
197 205 209 346 
320 83 349 354 
206 324 217 339 
250 238 212 342 
130 240 252 343 
297 336 90 349 
215 238 254 342 
124 135 325 341 
324 339 192 342 
294 88 332 349 
127 292 337 347 
75 93 84 341 
325 340 321 347 
219 192 339 342 
165 157 173 345 
110 341 325 343 
255 247 239 344 
320 341 325 347 
248 259 328 345 
110 137 341 343 
195 220 215 342 
237 345 261 355 
295 159 175 348 
170 158 178 340 
85 95 329 344 
200 238 215 342 
217 197 214 346 
298 132 336 347 
118 240 130 343 
238 200 212 342 
196 212 208 342 
130 114 126 343 
322 344 328 350 
240 343 118 355 
240 350 343 355 
327 346 316 349 
275 287 291 346 
290 346 327 349 
75 341 84 354 
219 208 192 342 
171 281 293 348 
94 69 329 354 
165 157 345 353 
207 324 192 342 
301 327 274 348 
110 325 125 343 
110 126 137 343 
207 338 324 342 
261 345 328 350 
217 205 197 346 
325 340 125 343 
95 91 74 339 
159 281 171 348 
295 281 159 348 
230 202 285 332 
162 229 201 333 
232 204 80 334 
203 244 231 335 
323 350 345 355 
286 120 314 336 
191 163 119 337 
94 83 69 354 
249 345 350 355 
177 151 326 353 
158 167 178 340 
178 326 151 353 
319 338 326 353 
69 97 344 354 
239 247 258 344 
233 261 328 350 
69 344 329 354 
168 164 156 338 
74 86 82 339 
274 327 346 348 
261 233 328 345 
177 172 156 338 
82 95 74 339 
192 324 207 338 
125 325 110 340 
84 344 97 354 
239 258 251 344 
156 164 177 338 
274 346 287 348 
127 111 123 347 
178 151 165 353 
218 205 324 338 
123 136 325 340 
289 274 301 327 
137 114 134 341 
216 196 219 339 
193 218 213 338 
194 210 206 339 
211 207 195 338 
131 136 111 340 
249 261 345 355 
125 129 113 340 
132 135 112 347 
177 164 151 353 
112 124 128 341 
296 300 277 346 
249 345 261 350 
69 84 97 354 
297 302 278 349 
92 97 73 344 
169 253 241 345 
233 249 261 350 
270 80 242 334 
270 242 204 334 
160 188 244 335 
160 203 188 335 
329 344 322 354 
126 341 137 343 
192 218 324 338 
237 257 261 345 
233 258 247 328 
219 339 208 342 
216 74 91 339 
172 213 156 338 
110 325 136 340 
74 210 86 339 
168 156 211 338 
320 349 329 354 
170 129 158 340 
214 279 296 346 
147 191 38 119 
120 314 148 43 
106 285 78 332 
106 78 202 332 
283 311 162 333 
201 311 283 333 
290 294 277 349 
13 244 271 231 
18 162 189 229 
28 232 80 108 
313 230 23 285 
192 218 205 324 
79 107 120 336 
119 284 312 337 
110 123 136 325 
286 107 79 336 
312 284 163 337 
178 167 151 326 
291 279 209 346 
116 134 93 341 
174 117 131 340 
75 87 128 341 
173 241 257 345 
248 253 235 345 
77 92 255 344 
89 239 251 344 
89 72 85 344 
216 198 74 339 
156 213 199 338 
214 197 279 346 
82 94 69 329 
129 117 158 340 
74 198 210 339 
156 199 211 338 
206 192 217 324 
110 124 135 325 
197 209 279 346 
158 117 174 340 
246 258 233 328 
75 128 116 341 
87 341 75 354 
328 345 323 350 
169 345 157 353 
77 239 89 344 
241 157 169 345 
75 116 93 341 
207 192 220 342 
173 157 241 345 
239 77 255 344 
152 169 176 353 
138 110 125 343 
192 205 217 324 
110 135 123 325 
290 300 327 346 
206 192 324 339 
236 252 260 350 
110 124 325 341 
135 123 325 347 
233 259 246 328 
90 309 99 336 
304 295 185 337 
274 327 300 346 
324 338 319 342 
318 339 324 342 
71 87 96 354 
233 328 247 350 
82 69 95 329 
323 340 325 343 
225 98 210 332 
303 209 223 333 
264 212 228 334 
182 211 227 335 
177 151 166 326 
325 341 322 343 
142 103 93 330 
255 104 263 330 
173 267 181 331 
146 130 268 330 
145 129 186 331 
221 296 306 332 
172 180 222 333 
101 224 91 334 
262 226 254 335 
289 280 298 347 
308 298 139 336 
140 184 174 337 
14 203 231 188 
244 59 271 188 
270 9 232 204 
270 49 80 108 
290 300 274 327 
261 249 237 355 
274 287 299 348 
317 346 327 348 
301 274 288 348 
147 39 312 119 
44 120 107 148 
64 162 311 189 
313 106 285 54 
201 311 229 19 
24 230 106 202 
312 191 163 68 
58 286 314 107 
310 88 102 332 
187 293 307 333 
265 105 251 334 
269 169 183 335 
100 143 87 336 
292 305 141 337 
233 248 259 328 
290 327 302 349 
88 294 76 349 
127 280 292 347 
297 90 282 349 
85 95 69 329 
298 115 132 347 
302 274 289 327 
260 247 236 350 
76 294 282 349 
280 127 115 347 
85 329 69 344 
192 207 218 338 
206 219 192 339 
179 151 167 326 
125 110 136 340 
248 328 233 345 
282 90 76 349 
110 137 124 341 
280 115 298 347 
297 309 90 336 
185 295 175 337 
210 98 86 332 
303 291 209 333 
250 212 264 334 
182 168 211 335 
290 274 302 327 
130 252 268 330 
170 186 129 331 
134 142 93 330 
92 104 255 330 
173 257 267 331 
166 151 179 326 
220 200 215 342 
280 301 292 347 
139 298 132 336 
140 174 131 337 
85 69 97 344 
200 208 212 342 
76 90 83 349 
310 294 88 332 
105 89 251 334 
187 171 293 333 
253 169 269 335 
128 87 143 336 
127 292 141 337 
118 130 126 343 
191 38 119 163 
120 286 314 43 
203 244 13 231 
201 162 18 229 
28 232 204 80 
230 23 285 202 
296 221 214 332 
172 222 213 333 
216 91 224 334 
226 215 254 335 
261 248 233 345 
88 76 94 349 
9 270 242 204 
242 270 49 80 
14 160 203 188 
59 244 160 188 
144 331 266 355 
289 301 280 347 
120 79 44 107 
39 312 119 284 
24 106 78 202 
201 283 311 19 
285 106 78 54 
283 64 162 311 
286 58 79 107 
163 312 68 284 
94 76 83 349 
221 285 202 332 
201 222 162 333 
101 80 204 334 
226 244 203 335 
120 286 139 336 
140 119 163 337 
31 133 256 355 
96 83 71 354 
98 202 78 332 
201 283 303 333 
242 264 204 334 
182 203 160 335 
274 300 287 346 
256 240 31 355 
176 164 152 353 
221 306 285 332 
162 222 180 333 
204 224 101 334 
262 244 226 335 
285 102 78 332 
307 283 162 333 
242 80 265 334 
183 160 244 335 
79 120 100 336 
305 284 119 337 
61 253 241 169 
99 309 286 336 
163 304 185 337 
31 118 133 355 
31 240 118 355 
260 252 240 350 
99 286 79 336 
163 284 304 337 
295 288 281 348 
172 156 213 16 
238 11 215 254 
214 296 279 21 
216 91 74 26 
299 293 281 348 
128 75 46 87 
127 280 41 292 
171 281 66 293 
294 76 56 88 
89 239 51 251 
225 202 98 332 
201 303 223 333 
204 264 228 334 
182 227 203 335 
213 156 199 16 
238 11 200 215 
197 214 279 21 
74 216 26 198 
285 310 102 332 
307 162 187 333 
80 105 265 334 
269 183 244 335 
286 308 139 336 
184 140 163 337 
120 143 100 336 
141 305 119 337 
36 129 117 158 
118 31 130 240 
117 36 158 174 
169 157 176 353 
197 279 209 21 
210 74 26 198 
199 156 211 16 
11 238 200 212 
280 127 41 115 
75 128 46 116 
281 171 66 159 
76 294 56 282 
239 89 51 77 
130 31 252 240 
36 170 129 158 
117 36 174 131 
146 330 268 351 
104 263 330 351 
103 330 142 351 
145 331 186 352 
144 266 331 352 
181 331 267 352 
208 220 192 342 
74 210 26 86 
279 291 209 21 
250 238 11 212 
156 168 211 16 
110 138 126 343 
96 87 75 354 
56 76 282 90 
295 159 281 66 
241 61 169 157 
71 90 99 336 
276 295 304 337 
77 51 239 255 
173 61 241 157 
75 116 46 93 
280 298 115 41 
78 102 70 332 
275 283 307 333 
265 234 242 334 
152 160 183 335 
86 98 70 332 
275 291 303 333 
250 264 234 334 
182 152 168 335 
99 79 71 336 
284 276 304 337 
297 56 282 90 
159 295 175 66 
92 51 77 255 
257 173 61 241 
46 116 134 93 
298 132 115 41 
71 79 100 336 
276 284 305 337 
308 139 298 132 
103 134 142 93 
98 78 70 332 
283 275 303 333 
242 234 264 334 
182 160 152 335 
181 173 257 267 
104 92 255 263 
138 113 133 355 
210 198 206 339 
199 207 211 338 
125 117 129 340 
88 70 102 332 
275 307 293 333 
265 251 234 334 
152 183 169 335 
219 198 216 339 
218 199 213 338 
116 137 134 341 
117 136 131 340 
124 116 128 341 
243 236 263 330 
103 81 73 330 
122 114 146 330 
181 161 154 331 
121 113 145 331 
266 245 237 331 
146 114 130 330 
145 113 129 331 
127 123 115 347 
285 277 310 332 
194 202 225 332 
187 162 153 333 
201 223 193 333 
80 72 105 334 
204 228 196 334 
235 269 244 335 
195 203 227 335 
256 266 237 331 
103 73 93 330 
255 263 236 330 
194 225 210 332 
154 173 181 331 
209 193 223 333 
196 228 212 334 
195 227 211 335 
294 290 282 349 
120 112 143 336 
111 141 119 337 
310 277 294 332 
105 72 89 334 
187 153 171 333 
235 253 269 335 
112 128 143 336 
127 141 111 337 
144 133 331 355 
248 241 253 345 
261 257 241 345 
85 77 89 344 
100 87 71 336 
276 305 292 337 
77 97 92 344 
252 236 268 330 
134 114 142 330 
104 92 73 330 
154 186 170 331 
113 144 133 331 
237 267 257 331 
297 278 309 336 
185 175 155 337 
142 114 122 330 
81 104 73 330 
243 268 236 330 
113 121 144 331 
237 245 267 331 
161 186 154 331 
286 278 308 336 
184 163 155 337 
184 140 174 131 
309 278 286 336 
163 185 155 337 
184 155 174 337 
278 298 308 336 
132 115 135 347 
113 331 133 355 
120 286 308 139 
184 140 119 163 
306 277 285 332 
194 221 202 332 
162 180 153 333 
201 193 222 333 
101 72 80 334 
196 224 204 334 
262 235 244 335 
226 203 195 335 
120 139 112 336 
140 111 119 337 
194 214 221 332 
296 277 306 332 
193 213 222 333 
153 180 172 333 
216 224 196 334 
72 101 91 334 
226 195 215 335 
262 254 235 335 
296 279 300 346 
139 132 112 336 
140 131 111 337 
282 302 297 349 
343 350 323 355 
142 330 122 351 
81 104 330 351 
268 330 243 351 
144 331 121 352 
267 331 245 352 
161 186 331 352 
103 81 330 351 
243 330 263 351 
122 330 146 351 
181 161 331 352 
245 331 266 352 
121 331 145 352 
170 145 129 186 
130 252 146 268 
256 331 237 355 
291 287 279 346 
256 266 331 355 
222 162 18 201 
226 244 13 203 
221 285 23 202 
204 28 80 101 
98 24 78 202 
201 283 19 303 
242 9 204 264 
160 182 14 203 
79 120 44 100 
78 285 54 102 
49 242 80 265 
305 39 119 284 
307 283 64 162 
183 59 244 160 
144 266 133 355 
244 226 13 262 
162 222 18 180 
285 221 23 306 
204 28 101 224 
227 182 168 211 
291 303 209 223 
264 250 228 212 
210 225 86 98 
99 286 58 79 
68 163 284 304 
288 274 299 348 
138 118 343 355 
38 184 119 163 
120 286 43 308 
225 24 98 202 
19 201 303 223 
9 204 264 228 
182 227 14 203 
184 140 38 119 
43 120 308 139 
309 99 286 58 
68 163 304 185 
304 185 295 175 
90 297 99 309 
120 44 100 143 
141 305 39 119 
187 307 64 162 
54 285 310 102 
269 183 59 244 
80 49 265 105 
260 233 247 350 
138 133 118 355 
256 133 266 355 
69 83 96 354 
151 164 176 353 
260 249 233 350 
249 350 240 355 
150 29 272 351 
150 109 48 351 
109 272 53 351 
190 149 34 352 
149 273 33 352 
273 190 63 352 
150 122 29 351 
243 53 272 351 
48 109 81 351 
149 121 34 352 
161 63 190 352 
273 245 33 352 
243 272 29 351 
150 48 122 351 
109 53 81 351 
190 34 161 352 
149 33 121 352 
273 63 245 352 
135 115 123 347 
96 84 69 354 
165 151 176 353 
256 237 249 355 
290 302 282 349 
172 222 180 17 
226 262 254 12 
221 296 22 306 
101 27 91 224 
150 272 109 351 
273 149 190 352 
22 296 214 21 
216 27 91 26 
17 172 213 16 
11 215 254 12 
260 240 249 350 
36 174 131 37 
256 31 32 133 
210 26 86 25 
209 291 20 21 
31 130 252 30 
36 170 35 129 
250 11 10 212 
168 15 211 16 
200 220 208 342 
29 146 268 351 
53 263 104 351 
48 103 142 351 
34 145 186 352 
266 144 33 352 
267 63 181 352 
99 297 57 309 
304 67 185 175 
298 42 132 41 
47 46 134 93 
51 92 52 255 
173 62 257 61 
138 118 126 343 
294 88 56 55 
51 50 89 251 
293 171 65 66 
60 253 61 169 
45 128 46 87 
292 127 40 41 
297 56 90 57 
295 67 175 66 
252 146 268 30 
170 35 145 186 
144 266 32 133 
184 140 131 37 
92 104 52 263 
62 181 257 267 
47 103 134 142 
308 42 139 132 
86 225 25 98 
291 303 223 20 
264 250 10 228 
227 182 15 168 
45 100 143 87 
141 292 40 305 
187 307 293 65 
60 269 169 183 
88 310 102 55 
265 105 50 251 
29 268 243 351 
81 53 104 351 
48 142 122 351 
34 186 161 352 
144 121 33 352 
267 245 63 352 
219 206 198 339 
218 207 199 338 
125 136 117 340 
137 116 124 341 
122 146 29 351 
243 263 53 351 
48 81 103 351 
121 145 34 352 
245 266 33 352 
181 63 161 352 
165 176 157 353 
85 97 77 344 
248 261 241 345 
75 84 96 354 
215 226 254 12 
172 222 17 213 
27 216 91 224 
296 221 22 214 
256 249 240 355 
300 279 287 346 
297 90 99 57 
67 304 295 175 
103 47 134 93 
42 308 298 132 
92 52 255 263 
173 62 181 257 
266 256 32 133 
174 184 131 37 
50 105 89 251 
294 310 88 55 
253 60 269 169 
171 187 293 65 
292 127 141 40 
128 45 143 87 
209 291 223 20 
225 210 86 25 
35 170 145 129 
252 130 146 30 
15 227 168 211 
250 10 228 212 
1 232 28 108 
2 13 271 231 
4 313 230 23 
18 189 3 229 
5 48 150 109 
149 273 6 33 
148 314 8 43 
273 63 190 6 
147 191 7 38 
5 53 109 272 
190 149 6 34 
150 5 272 29 
288 299 281 348 
59 2 271 188 
2 14 231 188 
270 1 49 108 
1 270 9 232 
7 191 312 68 
314 58 107 8 
147 39 7 312 
107 44 148 8 
311 3 229 19 
4 24 230 106 
311 64 189 3 
313 4 106 54 
189 311 3 229 
313 4 230 106 
191 147 7 312 
314 107 148 8 
271 2 231 188 
1 270 232 108 
273 190 149 6 
150 5 109 272 
226 262 12 13 
222 18 180 17 
28 27 101 224 
22 221 306 23 
35 34 145 186 
146 29 268 30 
266 144 32 33 
184 140 37 38 
62 181 267 63 
104 53 52 263 
47 48 103 142 
43 308 42 139 
67 68 304 185 
57 99 309 58 
182 227 15 14 
9 264 10 228 
303 19 223 20 
225 24 25 98 
187 307 65 64 
60 269 183 59 
310 54 102 55 
49 265 105 50 
40 141 305 39 
44 45 100 143 
